<?xml version="1.0" encoding="utf-8"?>
<!-- Generator: Adobe Illustrator 24.0.1, SVG Export Plug-In . SVG Version: 6.00 Build 0)  -->
<svg version="1.1" id="Layer_1" xmlns="http://www.w3.org/2000/svg" xmlns:xlink="http://www.w3.org/1999/xlink" x="0px" y="0px"
	 viewBox="0 0 782.8 545.2" style="enable-background:new 0 0 782.8 545.2;" xml:space="preserve">
<style type="text/css">
	.st0{fill:#FFFFFF;}
</style>
<title>Inicio-2</title>
<path class="st0" d="M191.9,65.7h3.5v69h33.9v3.1h-37.4V65.7z"/>
<path class="st0" d="M237.8,125c0-11.7,10.7-17.2,34.3-19.8c0.2-8.5-2-17.9-12.9-17.9c-7.4,0-13.8,3.7-17,6.3l-1.8-2.7
	c3.3-2.4,10.5-6.8,19-6.8c12.2,0,16,9.2,16,19.7v33.9h-2.8l-0.4-7h-0.2c-5.5,4.4-12,8.3-19,8.3C244.8,139.1,237.8,134.9,237.8,125z
	 M272.1,127v-19c-22.9,2.6-30.8,7.9-30.8,16.8c0,8.1,5.5,11.1,11.8,11.1C259.4,135.9,265.1,132.9,272.1,127z"/>
<path class="st0" d="M312,111.8c0-17.5,10.9-27.5,23.4-27.5c7.2,0,11.8,3.3,15.3,6.6l-2.2,2.4c-3.5-3.3-7.6-5.9-13.1-5.9
	c-11.1,0-19.9,10-19.9,24.5s7.9,24.2,19.9,24.2c5.9,0,10.9-2.8,14.6-6.3l2,2.4c-4.4,3.9-9.8,7-16.6,7C322.1,139.1,312,129,312,111.8
	z"/>
<path class="st0" d="M364.4,119.2V85.6h3.3v33.2c0,11.6,3.7,17.2,12.7,17.2c6.6,0,11.4-3.5,17.9-11.3V85.6h3.3v52.2h-2.8l-0.4-9
	h-0.2c-5.2,6.1-10.7,10.3-17.9,10.3C369.5,139.1,364.4,132.7,364.4,119.2z"/>
<path class="st0" d="M418.6,125c0-11.7,10.7-17.2,34.3-19.8c0.2-8.5-2-17.9-12.9-17.9c-7.4,0-13.8,3.7-17,6.3l-1.8-2.7
	c3.3-2.4,10.5-6.8,19-6.8c12.2,0,15.9,9.2,15.9,19.7v33.9h-2.8l-0.4-7h-0.2c-5.5,4.4-12,8.3-19,8.3
	C425.6,139.1,418.6,134.9,418.6,125z M452.9,127v-19c-22.9,2.6-30.8,7.9-30.8,16.8c0,8.1,5.5,11.1,11.8,11.1S445.9,132.9,452.9,127z
	"/>
<path class="st0" d="M475.6,85.6h2.8l0.4,9.8h0.2c3.5-6.3,8.5-11.1,14.9-11.1c1.7-0.1,3.4,0.3,5,1.1l-0.9,3c-1.4-0.6-3-0.9-4.6-0.9
	c-4.8,0-10.5,3.7-14.6,14v36.2h-3.3L475.6,85.6z"/>
<path class="st0" d="M510.1,124V88.6h-8.3V86l8.3-0.4l0.4-15.3h2.8v15.3h15.5v3h-15.5v35.8c0,6.8,1.5,11.6,9.2,11.6
	c2.3-0.2,4.6-0.8,6.8-1.7l1.1,2.8c-2.6,1-5.3,1.7-8.1,2C512.7,139.1,510.1,132.9,510.1,124z"/>
<path class="st0" d="M535.6,125c0-11.7,10.7-17.2,34.3-19.8c0.2-8.5-2-17.9-12.9-17.9c-7.4,0-13.8,3.7-17,6.3l-1.8-2.7
	c3.3-2.4,10.5-6.8,19-6.8c12.2,0,15.9,9.2,15.9,19.7v33.9h-2.8l-0.4-7h-0.2c-5.5,4.4-12,8.3-19,8.3
	C542.6,139.1,535.6,134.9,535.6,125z M569.9,127v-19c-22.9,2.6-30.8,7.9-30.8,16.8c0,8.1,5.5,11.1,11.8,11.1S562.9,132.9,569.9,127z
	"/>
<path class="st0" d="M126,176.4h2.8l0.4,6.8h0.2c5.2-4.1,11.6-8.1,18.1-8.1c14.2,0,21,10.5,21,26.6c0,17.7-10.7,28.2-23.1,28.2
	c-5,0-10.5-2.4-16.2-6.6v29.5H126V176.4z M165.1,201.8c0-13.3-4.8-23.6-17.7-23.6c-5.5,0-11.4,3.3-18.1,9.2v32.3
	c6.3,5.2,12.2,7.2,16.4,7.2C157,226.9,165.1,216.4,165.1,201.8L165.1,201.8z"/>
<path class="st0" d="M179.3,215.8c0-11.7,10.7-17.1,34.3-19.8c0.2-8.5-2-17.9-12.9-17.9c-7.4,0-13.8,3.7-17,6.3l-1.8-2.6
	c3.3-2.4,10.5-6.8,19-6.8c12.2,0,15.9,9.2,15.9,19.6v33.8H214l-0.4-7h-0.2c-5.5,4.4-12,8.3-19,8.3
	C186.3,229.9,179.3,225.8,179.3,215.8z M213.6,217.9v-19c-22.9,2.6-30.8,7.9-30.8,16.8c0,8.1,5.5,11.1,11.8,11.1
	S206.6,223.8,213.6,217.9z"/>
<path class="st0" d="M236.3,176.4h2.8l0.4,9.8h0.2c3.5-6.3,8.5-11.1,14.9-11.1c1.7-0.1,3.4,0.3,5,1.1l-0.9,3.1
	c-1.4-0.6-3-0.9-4.6-0.9c-4.8,0-10.5,3.7-14.6,14v36.2h-3.3V176.4z"/>
<path class="st0" d="M270.8,214.9v-35.4h-8.3v-2.6l8.3-0.4l0.4-15.3h2.8v15.3h15.5v3.1h-15.5v35.8c0,6.8,1.5,11.6,9.2,11.6
	c2.3-0.2,4.6-0.8,6.8-1.8l1.1,2.8c-2.6,1-5.3,1.7-8.1,2C273.4,229.9,270.8,223.8,270.8,214.9z"/>
<path class="st0" d="M297,202.6c0-17,10.9-27.5,22.5-27.5c12,0,19.6,8.5,19.6,24c0,1.2,0,2.3-0.2,3.5h-38.4c0,14,8.1,24.2,20.5,24.2
	c5.2,0,10.3-1.7,14.4-4.8l1.6,2.9c-3.9,2.4-8.3,5-16.2,5C307.7,229.9,297,219.7,297,202.6z M335.9,199.6c0-14.4-6.5-21.4-16.4-21.4
	c-9.4,0-17.9,8.1-19,21.4H335.9z"/>
<path class="st0" d="M373.2,216.3c0-7.9,5.1-13,11-13c3,0,5.1,1.1,7.6,3.1l-0.1-4.6v-10.5h1.5v37.3H392l-0.2-3.3h-0.1
	c-2.1,2.4-5.1,3.8-8.3,3.9C377.2,229.2,373.2,224.7,373.2,216.3z M391.8,223.5v-15.3c-2.8-2.5-5.1-3.4-7.6-3.4
	c-5.3,0-9.3,5.2-9.3,11.6c0,6.8,3.1,11.5,8.7,11.5C386.4,227.8,389,226.2,391.8,223.5L391.8,223.5z"/>
<path class="st0" d="M401.1,216.3c0-8.1,5.2-13,10.6-13c5.7,0,9.3,4,9.3,11.4c0,0.6,0,1.1-0.1,1.6h-18.2c0,6.6,3.8,11.5,9.7,11.5
	c2.5,0,4.9-0.8,6.8-2.3l0.7,1.4c-2.2,1.6-4.9,2.4-7.6,2.4C406.1,229.2,401.1,224.4,401.1,216.3z M419.5,214.9
	c0-6.8-3.1-10.1-7.8-10.1c-4.4,0-8.5,3.8-9,10.1H419.5z"/>
<path class="st0" d="M438.2,225.9v-34.6h1.5v34.9c0,1,0.4,1.6,1,1.6c0.3,0,0.6,0,0.9-0.1l0.3,1.4c-0.4,0.1-0.9,0.2-1.3,0.2
	C439.2,229.2,438.2,228.3,438.2,225.9z"/>
<path class="st0" d="M448,216.3c0-8.3,5.1-13,11-13s11,4.8,11,13s-5.1,12.9-11,12.9S448,224.5,448,216.3z M468.2,216.3
	c0-6.8-4-11.6-9.3-11.6s-9.3,4.8-9.3,11.6s4,11.5,9.3,11.5S468.2,223.1,468.2,216.3L468.2,216.3z"/>
<path class="st0" d="M474.4,225.8l1-1.2c2.2,2.1,5.1,3.2,8.1,3.2c4.1,0,6.3-2.5,6.3-5.3c0-3.3-3.3-4.8-6.2-5.8c-3.8-1.3-8-2.8-8-7
	c0-3.4,2.7-6.4,7.7-6.4c2.5,0.1,4.9,0.9,6.8,2.5l-0.9,1.2c-1.7-1.4-3.8-2.2-6-2.3c-4.1,0-6,2.4-6,4.9c0,3,3,4.1,6,5.3
	c3.9,1.5,8.3,2.7,8.3,7.5c0,3.6-2.9,6.8-8,6.8C480.1,229.2,476.9,228,474.4,225.8z"/>
<path class="st0" d="M127.3,329.9l1-1.2c2.2,2.1,5.1,3.2,8.1,3.2c4.1,0,6.3-2.5,6.3-5.3c0-3.3-3.3-4.8-6.2-5.8c-3.8-1.4-8-2.8-8-7
	c0-3.4,2.7-6.4,7.7-6.4c2.5,0,4.9,0.9,6.8,2.5l-0.9,1.2c-1.7-1.4-3.8-2.2-6-2.3c-4.1,0-6,2.4-6,4.9c0,3,3,4.1,6,5.3
	c3.9,1.5,8.3,2.7,8.3,7.5c0,3.6-2.9,6.8-8.1,6.8C133,333.3,129.8,332.1,127.3,329.9z"/>
<path class="st0" d="M149,320.4c0-8.3,5.1-13,11-13s10.9,4.8,10.9,13s-5.1,12.9-10.9,12.9S149,328.6,149,320.4z M169.2,320.4
	c0-6.8-4-11.6-9.3-11.6s-9.3,4.8-9.3,11.6s4,11.5,9.3,11.5S169.2,327.2,169.2,320.4L169.2,320.4z"/>
<path class="st0" d="M178.6,308h1.4l0.2,3.9h0.1c2.6-2.6,5.2-4.5,8.6-4.5c5.1,0,7.4,3,7.4,9.4v15.9h-1.6V317c0-5.5-1.8-8.2-6-8.2
	c-3.1,0-5.4,1.6-8.6,5v18.9h-1.6L178.6,308z"/>
<path class="st0" d="M69.6,445.5c0-11.5,9.5-17.5,31.5-19.8c-0.2-5.8-2.5-10.6-9.7-10.6c-5.3,0-10.3,2.4-15.1,5.3l-4.6-8.3
	c5.9-3.7,13.5-7,22-7c13.4,0,20,8.2,20,23.2v31.8h-10.3l-1-5.9H102c-4.8,4.1-10.3,7.2-16.6,7.2C76.1,461.2,69.6,454.8,69.6,445.5z
	 M101.1,445.5v-12c-14.5,1.8-19.4,5.6-19.4,11c0,4.7,3.2,6.8,7.7,6.8S97.2,449.2,101.1,445.5L101.1,445.5z"/>
<path class="st0" d="M128.8,406.2h10.3l1,9.6h0.4c3.8-7,9.5-10.9,15.2-10.9c2.1-0.1,4.2,0.3,6.1,1.1l-2.2,10.9
	c-1.8-0.6-3.6-0.9-5.5-0.9c-4.3,0-9.4,2.9-12.7,11.1v32.7h-12.6V406.2z"/>
<path class="st0" d="M201.5,463.4l0.5-8.9c-3.9,3.8-9.3,6.7-14.8,6.7c-13.4,0-22-10.4-22-28.1c0-17.5,11-28.2,22.7-28.2
	c6,0,10.3,2.1,14.8,6.5h0.3l1.1-5.2h9.9v74.9h-12.5V463.4z M201.5,444.8v-25c-2.9-2.8-6.8-4.4-10.9-4.5c-6.8,0-12.4,6.5-12.4,17.6
	c0,11.7,4.4,17.8,12.2,17.8C194.4,450.8,197.9,448.9,201.5,444.8z"/>
<path class="st0" d="M229.4,439.9v-33.6H242v32c0,8.8,2.5,12.1,8.3,12.1c4.7,0,7.8-2.2,11.9-7.4v-36.7h12.6v53.6h-10.3l-1-7.9h-0.4
	c-4.7,5.6-9.9,9.2-17.2,9.2C234.4,461.2,229.4,453.4,229.4,439.9z"/>
<path class="st0" d="M287.2,433.1c0-17.4,12.1-28.2,24.7-28.2c14.5,0,22.1,10.5,22.1,25.5c0,2-0.2,4.1-0.5,6.1h-34
	c1,9.5,7.2,14.9,15.8,14.9c4.4-0.1,8.8-1.4,12.5-3.9l4.3,7.8c-5.4,3.7-11.8,5.7-18.4,5.8C298.8,461.2,287.2,450.8,287.2,433.1z
	 M323.2,427.9c0-8.2-3.7-13.3-11-13.3c-6.2,0-11.8,4.7-12.8,13.3H323.2z"/>
<path class="st0" d="M342.6,433.1c0-17.9,12.1-28.2,25.5-28.2s25.5,10.3,25.5,28.2s-12.1,28.1-25.5,28.1S342.6,450.9,342.6,433.1z
	 M380.6,433.1c0-10.8-4.7-17.9-12.6-17.9s-12.6,7.2-12.6,17.9s4.7,17.8,12.6,17.8S380.6,443.8,380.6,433.1z"/>
<path class="st0" d="M405.4,446.1v-63.3H418v64c0,3.1,1.4,4.2,2.7,4.2c0.7,0,1.3-0.1,2-0.2l1.6,9.4c-2.1,0.8-4.4,1.2-6.6,1.1
	C408.7,461.2,405.4,455.4,405.4,446.1z"/>
<path class="st0" d="M431.4,433.1c0-17.9,12.1-28.2,25.5-28.2s25.5,10.3,25.5,28.2s-12.1,28.1-25.5,28.1S431.4,450.9,431.4,433.1z
	 M469.5,433.1c0-10.8-4.7-17.9-12.6-17.9s-12.6,7.2-12.6,17.9s4.7,17.8,12.6,17.8S469.5,443.8,469.5,433.1L469.5,433.1z
	 M450.5,391.1l16.1-19l8.6,8.3l-18.5,16.9L450.5,391.1z"/>
<path class="st0" d="M491.2,469.6c0-4.5,2.8-8.5,7.7-11.4v-0.4c-3.1-1.9-5-5.3-4.9-9c0-4.1,2.8-7.8,5.9-10v-0.4
	c-4.4-3.3-7-8.6-7.1-14.1c0-12.3,10-19.3,21.2-19.3c2.7,0,5.4,0.4,8,1.3h19.1v9.3h-9.8c2,2.6,3.1,5.7,3.1,9c0,11.9-9,18.3-20.4,18.3
	c-2.5,0-4.9-0.5-7.2-1.4c-1.7,1.2-2.6,3.1-2.6,5.1c0,3,2.2,4.9,8.7,4.9h9.5c12.8,0,19.6,4,19.6,13.2c0,10.6-11.1,18.9-28.6,18.9
	C500.8,483.6,491.2,479,491.2,469.6z M530,466.7c0-4.1-3.3-5.4-9.5-5.4h-7.4c-2.4,0.1-4.9-0.2-7.2-0.8c-2.9,2.2-4.1,4.6-4.1,7.1
	c0,4.9,5.2,7.7,13.7,7.7C524.1,475.4,530,471.4,530,466.7z M523.4,424.2c0-6.7-4.1-10.6-9.3-10.6s-9.3,3.8-9.3,10.6
	s4.2,10.8,9.3,10.8S523.5,431,523.4,424.2L523.4,424.2z"/>
<path class="st0" d="M550.3,389.7c0-4.2,3.3-7.1,7.8-7.1s7.8,2.9,7.8,7.1s-3.3,7.1-7.8,7.1S550.3,393.9,550.3,389.7z M551.7,406.2
	h12.6v53.6h-12.6V406.2z"/>
<path class="st0" d="M576.8,433.1c0-17.9,12.6-28.2,26.9-28.2c5.8,0,11.4,2.1,15.7,6l-6.1,8.2c-2.8-2.5-5.5-3.9-8.9-3.9
	c-8.7,0-14.6,7.2-14.6,17.9s5.9,17.8,14.2,17.8c4.2,0,8-2,11.1-4.6l5.1,8.3c-4.8,4.3-11.1,6.6-17.5,6.6
	C588,461.2,576.8,450.9,576.8,433.1z"/>
<path class="st0" d="M624.6,433.1c0-17.9,12.1-28.2,25.5-28.2s25.5,10.3,25.5,28.2s-12.2,28.1-25.5,28.1S624.6,450.9,624.6,433.1z
	 M662.7,433.1c0-10.8-4.7-17.9-12.6-17.9s-12.6,7.2-12.6,17.9s4.7,17.8,12.6,17.8S662.7,443.8,662.7,433.1L662.7,433.1z"/>
<path class="st0" d="M682.3,453.7l5.8-8c4.8,3.7,9.4,6,14.8,6c5.8,0,8.6-2.8,8.6-6.4c0-4.5-5.8-6.5-11.5-8.7c-7-2.6-15-6.7-15-15.6
	c0-9.3,7.5-16,19.5-16c6.5,0.1,12.8,2.3,17.8,6.4l-5.8,7.7c-3.8-2.8-7.5-4.7-11.8-4.7c-5.4,0-8,2.6-8,5.9c0,4.2,5.4,5.9,11.2,8
	c7.2,2.7,15.4,6.2,15.4,16.2c0,9.2-7.3,16.6-20.8,16.6C695.2,461.1,688.1,458.4,682.3,453.7z"/>
<path class="st0" d="M222.1,308.9h10.3l1,7.3h0.4c4.5-4.7,9.7-8.6,16.5-8.6c7.9,0,12.3,3.6,14.8,9.6c5.1-5.5,10.4-9.6,17.3-9.6
	c11.3,0,16.5,7.8,16.5,21.3v33.6h-12.6v-32c0-8.8-2.6-12.1-8.2-12.1c-3.4,0-7.1,2.2-11.2,6.7v37.5h-12.6v-32
	c0-8.8-2.6-12.1-8.2-12.1c-3.3,0-7.1,2.2-11.2,6.7v37.5h-12.6V308.9z"/>
<path class="st0" d="M313.5,342.5v-33.6h12.6v32c0,8.8,2.5,12.1,8.3,12.1c4.7,0,7.8-2.2,11.9-7.4v-36.7h12.6v53.6h-10.3l-1-7.9h-0.4
	c-4.7,5.6-9.9,9.2-17.2,9.2C318.5,363.8,313.5,356.1,313.5,342.5z"/>
<path class="st0" d="M369.5,356.4l5.9-8c4.8,3.7,9.4,6,14.8,6c5.9,0,8.6-2.8,8.6-6.4c0-4.5-5.8-6.5-11.5-8.7
	c-7-2.6-15.1-6.7-15.1-15.6c0-9.3,7.5-16,19.5-16c6.5,0.1,12.8,2.3,17.8,6.4l-5.8,7.7c-3.8-2.8-7.5-4.7-11.8-4.7c-5.4,0-8,2.6-8,5.9
	c0,4.2,5.4,5.9,11.2,8c7.2,2.7,15.4,6.2,15.4,16.2c0,9.2-7.3,16.6-20.8,16.6C382.4,363.7,375.3,361,369.5,356.4z"/>
<path class="st0" d="M418.4,335.8c0-17.4,12.1-28.2,24.7-28.2c14.5,0,22.1,10.5,22.1,25.5c0,2-0.2,4.1-0.5,6.1h-34
	c1,9.5,7.2,14.9,15.8,14.9c4.4-0.1,8.8-1.4,12.5-3.9l4.3,7.8c-5.4,3.7-11.8,5.7-18.4,5.8C430,363.8,418.4,353.4,418.4,335.8z
	 M454.4,330.6c0-8.3-3.7-13.3-11-13.3c-6.2,0-11.8,4.7-12.8,13.3H454.4z"/>
<path class="st0" d="M473.7,335.8c0-17.9,12.1-28.2,25.5-28.2c13.4,0,25.5,10.3,25.5,28.2s-12.1,28.1-25.5,28.1
	S473.7,353.5,473.7,335.8z M511.8,335.8c0-10.7-4.7-17.9-12.6-17.9s-12.6,7.2-12.6,17.9s4.7,17.8,12.6,17.8S511.8,346.5,511.8,335.8
	z"/>
<path class="st0" d="M531.4,356.4l5.8-8c4.8,3.7,9.4,6,14.8,6c5.9,0,8.6-2.8,8.6-6.4c0-4.5-5.8-6.5-11.5-8.7
	c-7-2.6-15.1-6.7-15.1-15.6c0-9.3,7.5-16,19.5-16c6.5,0.1,12.8,2.3,17.8,6.4l-5.8,7.7c-3.8-2.8-7.5-4.7-11.8-4.7c-5.4,0-8,2.6-8,5.9
	c0,4.2,5.4,5.9,11.2,8c7.2,2.7,15.4,6.2,15.4,16.2c0,9.2-7.3,16.6-20.8,16.6C544.3,363.7,537.2,361,531.4,356.4z"/>
<path class="st0" d="M199.2,262.5c0-6.4,4-10.3,9-10.3c2.2,0,4.2,0.9,5.7,2.5L212,257c-1-1.1-2.3-1.7-3.7-1.7
	c-3.2,0-5.5,2.7-5.5,7.1s2.1,7.2,5.4,7.2c1.6,0,3.2-0.7,4.2-2l1.9,2.2c-1.5,1.8-3.8,2.9-6.2,2.9C203.1,272.6,199.2,269,199.2,262.5z
	"/>
<path class="st0" d="M224.8,252.6h11.9v2.9h-8.4v5h7.1v2.9h-7.1v5.8h8.7v2.9h-12.2V252.6z"/>
<path class="st0" d="M248.2,252.6h3.6l6.1,11.1l2,4.2h0.1c-0.2-2-0.4-4.5-0.4-6.7v-8.6h3.3v19.7h-3.6l-6.1-11.1l-2-4.2H251
	c0.2,2.1,0.4,4.5,0.4,6.6v8.6h-3.3L248.2,252.6z"/>
<path class="st0" d="M279.1,255.5h-5.7v-2.9h14.9v2.9h-5.7v16.7h-3.5V255.5z"/>
<path class="st0" d="M298.8,252.6h6.6c4.1,0,7.2,1.4,7.2,5.8c0,4.2-3.1,6.1-7.2,6.1h-3.1v7.7h-3.5V252.6z M305,261.8
	c2.7,0,4.2-1.1,4.2-3.4s-1.5-3.1-4.2-3.1h-2.8v6.4H305z M304.7,263.6l2.5-2.1l6.1,10.7h-3.9L304.7,263.6z"/>
<path class="st0" d="M322.8,262.3c0-6.4,3.5-10.1,8.7-10.1s8.7,3.8,8.7,10.1c0,6.4-3.5,10.3-8.7,10.3S322.8,268.7,322.8,262.3z
	 M336.5,262.3c0-4.4-2-7.1-5.1-7.1s-5.1,2.7-5.1,7.1s2,7.2,5.1,7.2S336.5,266.8,336.5,262.3z"/>
<path class="st0" d="M349.9,269.7l2-2.4c1.4,1.4,3.2,2.2,5.1,2.2c2.2,0,3.4-1,3.4-2.5s-1.3-2.1-3-2.9l-2.7-1.1c-1.9-0.8-4-2.3-4-5.2
	c0-3.1,2.8-5.6,6.6-5.6c2.3,0,4.5,0.9,6.1,2.5l-1.8,2.2c-1.2-1.1-2.7-1.7-4.3-1.7c-1.9,0-3.1,0.9-3.1,2.3s1.5,2.1,3.1,2.8l2.7,1.1
	c2.3,1,4,2.5,4,5.3c0,3.2-2.6,5.9-7.1,5.9C354.4,272.6,351.8,271.6,349.9,269.7z"/>
<path class="st0" d="M388.1,252.6h5.2c6,0,9.6,3.2,9.6,9.8s-3.6,9.9-9.4,9.9h-5.4V252.6z M393.1,269.4c4,0,6.2-2.2,6.2-7.1
	s-2.3-6.9-6.2-6.9h-1.5v14L393.1,269.4z"/>
<path class="st0" d="M414.2,252.6H426v2.9h-8.4v5h7.1v2.9h-7.1v5.8h8.7v2.9h-12.1V252.6z"/>
<path class="st0" d="M449.8,262.5c0-6.4,4-10.3,9-10.3c2.2,0,4.2,0.9,5.7,2.5l-1.9,2.3c-1-1.1-2.3-1.7-3.7-1.7
	c-3.2,0-5.5,2.7-5.5,7.1s2.1,7.2,5.4,7.2c1.6,0,3.2-0.7,4.2-2l1.9,2.2c-1.5,1.8-3.8,2.9-6.2,2.9C453.7,272.6,449.8,269,449.8,262.5z
	"/>
<path class="st0" d="M475.4,252.6h3.5v19.7h-3.5V252.6z"/>
<path class="st0" d="M491,252.6h11.9v2.9h-8.4v5h7.1v2.9h-7.1v5.8h8.7v2.9H491V252.6z"/>
<path class="st0" d="M514.5,252.6h3.5l6.1,11.1l2,4.2h0.1c-0.2-2-0.4-4.5-0.4-6.7v-8.6h3.3v19.7h-3.5l-6.1-11.1l-2-4.2h-0.1
	c0.2,2.1,0.4,4.5,0.4,6.6v8.6h-3.3L514.5,252.6z"/>
<path class="st0" d="M540.4,262.5c0-6.4,4-10.3,9-10.3c2.2,0,4.2,0.9,5.7,2.5l-1.8,2.3c-1-1.1-2.3-1.7-3.7-1.7
	c-3.2,0-5.5,2.7-5.5,7.1s2.1,7.2,5.4,7.2c1.6,0,3.2-0.7,4.2-2l1.9,2.2c-1.5,1.8-3.8,2.9-6.2,2.9C544.3,272.6,540.4,269,540.4,262.5z
	"/>
<path class="st0" d="M566,252.6h3.5v19.7H566V252.6z"/>
<path class="st0" d="M585.5,252.6h4.1l6.4,19.7h-3.7l-3-10.5c-0.6-2.1-1.2-4.3-1.8-6.5h-0.1c-0.5,2.2-1.1,4.4-1.8,6.5l-3,10.5h-3.6
	L585.5,252.6z M582.9,264.2h9.3v2.7h-9.3V264.2z"/>
</svg>
