<?xml version="1.0" encoding="utf-8"?>
<!-- Generator: Adobe Illustrator 24.0.1, SVG Export Plug-In . SVG Version: 6.00 Build 0)  -->
<svg version="1.1" id="Layer_1" xmlns="http://www.w3.org/2000/svg" xmlns:xlink="http://www.w3.org/1999/xlink" x="0px" y="0px"
	 viewBox="0 0 589.3 318.8" style="enable-background:new 0 0 589.3 318.8;" xml:space="preserve">
<style type="text/css">
	.st0{fill:#FFFFFF;}
</style>
<title>Inicio-2</title>
<path class="st0" d="M75,119.1c0-17.4,12.1-28.2,24.7-28.2c14.5,0,22.2,10.5,22.2,25.5c0,2-0.2,4.1-0.6,6.1H87.2
	c1.1,9.5,7.2,14.9,15.8,14.9c4.4-0.1,8.8-1.4,12.4-3.9l4.3,7.8c-5.4,3.7-11.8,5.7-18.4,5.8C86.6,147.2,75,136.8,75,119.1z M111,114
	c0-8.2-3.7-13.3-11-13.3c-6.2,0-11.7,4.7-12.8,13.3H111z"/>
<path class="st0" d="M128.5,139.7l5.9-8c4.8,3.7,9.4,6,14.8,6c5.9,0,8.6-2.8,8.6-6.4c0-4.5-5.8-6.5-11.5-8.7
	c-7-2.6-15.1-6.7-15.1-15.6c0-9.3,7.5-16,19.5-16c6.5,0.1,12.8,2.3,17.8,6.4l-5.8,7.7c-3.8-2.8-7.5-4.7-11.8-4.7
	c-5.4,0-7.9,2.6-7.9,5.9c0,4.2,5.4,5.9,11.2,8c7.2,2.7,15.4,6.2,15.4,16.2c0,9.2-7.3,16.6-20.8,16.6
	C141.4,147.1,134.3,144.4,128.5,139.7z"/>
<path class="st0" d="M180.9,92.2h10.3l1,5.7h0.4c4.5-3.9,10.3-7,16.2-7c13.4,0,21.1,10.8,21.1,27.3c0,18.4-11,29-22.9,29
	c-4.8,0-9.4-2.1-13.8-5.9l0.4,8.9v16.9h-12.6V92.2z M216.9,118.4c0-10.7-3.5-17-11.7-17c-3.9,0-7.6,2-11.7,6v25
	c3.8,3.3,7.6,4.5,10.7,4.5C211.4,136.8,216.9,130.5,216.9,118.4z"/>
<path class="st0" d="M238.3,131.5c0-11.5,9.5-17.5,31.5-19.8c-0.2-5.8-2.5-10.6-9.7-10.6c-5.3,0-10.4,2.4-15.1,5.3l-4.6-8.4
	c5.9-3.7,13.5-7,22-7c13.4,0,20,8.3,20,23.2v31.8h-10.3l-1-5.9h-0.4c-4.8,4.1-10.3,7.2-16.6,7.2
	C244.8,147.2,238.3,140.8,238.3,131.5z M269.9,131.5v-12c-14.5,1.8-19.4,5.6-19.4,11.1c0,4.7,3.2,6.8,7.7,6.8
	S265.9,135.2,269.9,131.5L269.9,131.5z"/>
<path class="st0" d="M294,119.1c0-17.9,12.6-28.2,26.9-28.2c5.8,0,11.4,2.1,15.7,6l-6.1,8.2c-2.8-2.5-5.5-3.9-8.9-3.9
	c-8.6,0-14.6,7.2-14.6,17.9s5.9,17.8,14.2,17.8c4.2,0,8-2.1,11.1-4.6l5.1,8.3c-4.8,4.3-11.1,6.6-17.5,6.6
	C305.2,147.2,294,136.9,294,119.1z"/>
<path class="st0" d="M346.5,75.8c0-4.2,3.3-7.1,7.8-7.1s7.8,2.9,7.8,7.1s-3.3,7.1-7.8,7.1S346.5,79.9,346.5,75.8z M348,92.2h12.6
	v53.6H348V92.2z"/>
<path class="st0" d="M373.1,119.1c0-17.9,12.1-28.2,25.5-28.2s25.5,10.3,25.5,28.2s-12.1,28.1-25.5,28.1S373.1,136.9,373.1,119.1z
	 M411.1,119.1c0-10.8-4.7-17.9-12.6-17.9s-12.6,7.2-12.6,17.9s4.7,17.8,12.6,17.8S411.1,129.9,411.1,119.1z"/>
<path class="st0" d="M430.8,139.7l5.9-8c4.8,3.7,9.4,6,14.8,6c5.9,0,8.6-2.8,8.6-6.4c0-4.5-5.8-6.5-11.5-8.7
	c-7-2.6-15.1-6.7-15.1-15.6c0-9.3,7.5-16,19.5-16c6.5,0.1,12.8,2.3,17.8,6.4l-5.8,7.7c-3.8-2.8-7.5-4.7-11.8-4.7c-5.4,0-8,2.6-8,5.9
	c0,4.2,5.4,5.9,11.2,8c7.2,2.7,15.4,6.2,15.4,16.2c0,9.2-7.3,16.6-20.8,16.6C443.7,147,436.5,144.4,430.8,139.7z"/>
<path class="st0" d="M53,272.9l2-2.4c1.4,1.4,3.2,2.2,5.1,2.2c2.2,0,3.4-1,3.4-2.5s-1.3-2.1-3.1-2.9l-2.7-1.2c-1.9-0.8-4-2.3-4-5.2
	c0-3.1,2.8-5.6,6.6-5.6c2.3,0,4.5,0.9,6.1,2.5l-1.8,2.2c-1.2-1.1-2.7-1.7-4.3-1.7c-1.9,0-3.1,0.9-3.1,2.3s1.5,2.1,3.1,2.8l2.7,1.1
	c2.3,1,4,2.5,4,5.3c0,3.2-2.7,5.9-7.1,5.9C57.4,275.8,54.9,274.8,53,272.9z"/>
<path class="st0" d="M76.9,265.5c0-6.4,3.6-10.1,8.7-10.1s8.7,3.8,8.7,10.1s-3.6,10.3-8.7,10.3S76.9,271.9,76.9,265.5z M90.7,265.5
	c0-4.4-2-7.1-5.1-7.1s-5.1,2.7-5.1,7.1s2,7.2,5.1,7.2S90.7,270,90.7,265.5z"/>
<path class="st0" d="M105.4,255.8h3.6l6.1,11.1l2,4.2h0.1c-0.2-2-0.4-4.5-0.4-6.7v-8.6h3.3v19.7h-3.6l-6.1-11.1l-2-4.2h-0.1
	c0.2,2.1,0.4,4.5,0.4,6.6v8.6h-3.3L105.4,255.8z"/>
<path class="st0" d="M144.6,265.7c0-6.4,4-10.3,9-10.3c2.2,0,4.2,0.9,5.7,2.5l-1.9,2.2c-1-1.1-2.3-1.7-3.7-1.7
	c-3.2,0-5.5,2.7-5.5,7.1s2.1,7.2,5.4,7.2c1.6,0,3.2-0.7,4.2-2l1.9,2.2c-1.5,1.8-3.8,2.9-6.2,2.9
	C148.5,275.8,144.6,272.2,144.6,265.7z"/>
<path class="st0" d="M170.2,255.8H182v2.9h-8.4v5h7.1v2.9h-7.1v5.8h8.7v2.9h-12.1V255.8z"/>
<path class="st0" d="M193.6,255.8h3.6l6.1,11.1l2,4.2h0.1c-0.2-2-0.4-4.5-0.4-6.7v-8.6h3.3v19.7h-3.6l-6.1-11.1l-2-4.2h-0.1
	c0.2,2.1,0.4,4.5,0.4,6.6v8.6h-3.3L193.6,255.8z"/>
<path class="st0" d="M224.5,258.7h-5.7v-2.9h14.9v2.9H228v16.7h-3.5V258.7z"/>
<path class="st0" d="M244.2,255.8h6.6c4.1,0,7.2,1.4,7.2,5.8c0,4.2-3.1,6.1-7.2,6.1h-3.1v7.7h-3.5L244.2,255.8z M250.4,265
	c2.7,0,4.2-1.1,4.2-3.4s-1.5-3-4.2-3h-2.8v6.4L250.4,265z M250.1,266.8l2.5-2.1l6.1,10.7h-3.9L250.1,266.8z"/>
<path class="st0" d="M268.2,265.5c0-6.4,3.5-10.1,8.7-10.1s8.7,3.8,8.7,10.1s-3.5,10.3-8.7,10.3S268.2,271.9,268.2,265.5z
	 M281.9,265.5c0-4.4-2-7.1-5.1-7.1s-5.1,2.7-5.1,7.1s2,7.2,5.1,7.2S281.9,270,281.9,265.5z"/>
<path class="st0" d="M295.4,272.9l2-2.4c1.4,1.4,3.2,2.2,5.1,2.2c2.2,0,3.4-1,3.4-2.5s-1.3-2.1-3-2.9l-2.7-1.2c-1.9-0.8-4-2.3-4-5.2
	c0-3.1,2.8-5.6,6.6-5.6c2.3,0,4.4,0.9,6.1,2.5l-1.8,2.2c-1.2-1.1-2.7-1.7-4.3-1.7c-1.9,0-3.1,0.9-3.1,2.3s1.5,2.1,3.1,2.8l2.7,1.1
	c2.3,1,4,2.5,4,5.3c0,3.2-2.6,5.9-7.1,5.9C299.8,275.8,297.2,274.8,295.4,272.9z"/>
<path class="st0" d="M333.5,255.8h5.2c6,0,9.6,3.2,9.6,9.8s-3.6,9.9-9.4,9.9h-5.4V255.8z M338.5,272.6c4,0,6.2-2.2,6.2-7.1
	s-2.3-6.9-6.2-6.9H337v14L338.5,272.6z"/>
<path class="st0" d="M359.6,255.8h11.9v2.9h-8.4v5h7.1v2.9h-7.1v5.8h8.7v2.9h-12.2V255.8z"/>
<path class="st0" d="M395.2,265.7c0-6.4,4-10.3,9-10.3c2.2,0,4.2,0.9,5.7,2.5l-1.9,2.2c-1-1.1-2.3-1.7-3.7-1.7
	c-3.2,0-5.5,2.7-5.5,7.1s2.1,7.2,5.4,7.2c1.6,0,3.2-0.7,4.2-2l1.9,2.2c-1.5,1.8-3.8,2.9-6.2,2.9
	C399.1,275.8,395.2,272.2,395.2,265.7z"/>
<path class="st0" d="M420.8,255.8h3.5v19.7h-3.5V255.8z"/>
<path class="st0" d="M436.5,255.8h11.9v2.9H440v5h7v2.9h-7v5.8h8.7v2.9h-12.2V255.8z"/>
<path class="st0" d="M459.9,255.8h3.6l6.1,11.1l2,4.2h0.1c-0.2-2-0.4-4.5-0.4-6.7v-8.6h3.3v19.7H471l-6.1-11.1l-2-4.2h-0.1
	c0.2,2.1,0.5,4.5,0.5,6.6v8.6h-3.3L459.9,255.8z"/>
<path class="st0" d="M485.8,265.7c0-6.4,4-10.3,9-10.3c2.2,0,4.2,0.9,5.7,2.5l-1.9,2.2c-1-1.1-2.3-1.7-3.7-1.7
	c-3.2,0-5.5,2.7-5.5,7.1s2.1,7.2,5.4,7.2c1.6,0,3.2-0.7,4.2-2l1.9,2.2c-1.5,1.8-3.8,2.9-6.2,2.9
	C489.7,275.8,485.8,272.2,485.8,265.7z"/>
<path class="st0" d="M511.4,255.8h3.5v19.7h-3.5V255.8z"/>
<path class="st0" d="M530.9,255.8h4.1l6.4,19.7h-3.7l-3-10.5c-0.6-2.1-1.2-4.3-1.8-6.5h-0.1c-0.5,2.2-1.1,4.4-1.8,6.5l-3,10.5h-3.6
	L530.9,255.8z M528.3,267.4h9.3v2.7h-9.3V267.4z"/>
<path class="st0" d="M125,42.9h1.7v32.6h16V77H125V42.9z"/>
<path class="st0" d="M145.9,64.7c0-8.3,5.1-13,11-13s10.9,4.8,10.9,13s-5.1,12.9-10.9,12.9S145.9,72.8,145.9,64.7z M166.1,64.7
	c0-6.8-4-11.6-9.3-11.6s-9.3,4.8-9.3,11.6s4,11.5,9.3,11.5S166.1,71.5,166.1,64.7z"/>
<path class="st0" d="M172.3,74.2l1-1.2c2.2,2.1,5.1,3.2,8.1,3.2c4.1,0,6.3-2.5,6.3-5.3c0-3.3-3.3-4.8-6.2-5.8
	c-3.8-1.3-8.1-2.8-8.1-7c0-3.4,2.7-6.4,7.8-6.4c2.5,0,4.9,0.9,6.8,2.5l-0.9,1.2c-1.7-1.4-3.8-2.2-6-2.3c-4.1,0-6,2.4-6,4.8
	c0,3,3,4.1,6,5.3c3.9,1.5,8.3,2.7,8.3,7.5c0,3.6-2.9,6.8-8,6.8C178,77.6,174.8,76.3,172.3,74.2z"/>
<path class="st0" d="M198.8,177.5h10.3l1,7.3h0.4c4.6-4.7,9.7-8.6,16.5-8.6c7.9,0,12.3,3.6,14.8,9.6c5.1-5.5,10.4-9.6,17.2-9.6
	c11.3,0,16.5,7.8,16.5,21.3v33.6h-12.6v-32c0-8.8-2.6-12.1-8.2-12.1c-3.4,0-7.1,2.2-11.2,6.7v37.5h-12.6v-32
	c0-8.8-2.6-12.1-8.2-12.1c-3.3,0-7.1,2.2-11.2,6.7v37.5h-12.6V177.5z"/>
<path class="st0" d="M289.4,161c0-4.2,3.3-7.1,7.8-7.1s7.8,2.9,7.8,7.1s-3.3,7.1-7.8,7.1S289.4,165.2,289.4,161z M290.8,177.5h12.6
	v53.6h-12.6L290.8,177.5z"/>
<path class="st0" d="M330,203.2l-15.9-25.7h13.5l5.9,10.2c1.5,3,3.2,6.1,4.9,9h0.4c1.4-3,2.9-6.1,4.2-9l5.1-10.2h13.1l-15.9,27.1
	l17,26.6h-13.6l-6.6-10.6c-1.8-3.1-3.5-6.4-5.4-9.5h-0.4c-1.6,3.1-3.2,6.3-4.8,9.5l-5.7,10.6h-13L330,203.2z"/>
<path class="st0" d="M371,213.1v-25.6h-7.6v-9.4l8.3-0.6l1.5-14.6h10.4v14.6h13.7v10h-13.7v25.5c0,6.3,2.4,9.4,7.6,9.4
	c1.9-0.1,3.8-0.5,5.6-1.2l2.1,9.3c-3.5,1.3-7.2,1.9-11,2C375.6,232.5,371,224.7,371,213.1z"/>
<path class="st0" d="M403.2,204.4c0-17.9,12.1-28.2,25.5-28.2s25.5,10.3,25.5,28.2s-12.1,28.1-25.5,28.1S403.2,222.2,403.2,204.4z
	 M441.3,204.4c0-10.8-4.7-17.9-12.6-17.9s-12.6,7.2-12.6,17.9s4.7,17.8,12.6,17.8S441.3,215.1,441.3,204.4z"/>
<path class="st0" d="M461,225l5.9-8c4.8,3.7,9.4,6,14.8,6c5.9,0,8.6-2.8,8.6-6.4c0-4.5-5.8-6.5-11.5-8.7c-7-2.6-15.1-6.7-15.1-15.6
	c0-9.3,7.5-16,19.5-16c6.5,0.1,12.8,2.3,17.8,6.4l-5.8,7.7c-3.8-2.8-7.5-4.7-11.8-4.7c-5.4,0-8,2.6-8,5.9c0,4.2,5.4,5.9,11.2,8
	c7.2,2.7,15.4,6.2,15.4,16.2c0,9.2-7.3,16.6-20.8,16.6C473.9,232.3,466.8,229.7,461,225z"/>
</svg>
