<?xml version="1.0" encoding="utf-8"?>
<!-- Generator: Adobe Illustrator 24.0.1, SVG Export Plug-In . SVG Version: 6.00 Build 0)  -->
<svg version="1.1" id="Layer_1" xmlns="http://www.w3.org/2000/svg" xmlns:xlink="http://www.w3.org/1999/xlink" x="0px" y="0px"
	 viewBox="0 0 674 536.8" style="enable-background:new 0 0 674 536.8;" xml:space="preserve">
<style type="text/css">
	.st0{fill:#FFFFFF;}
</style>
<title>Inicio-2</title>
<path class="st0" d="M172.4,49.5h3.5v69h33.8v3.1h-37.3V49.5z"/>
<path class="st0" d="M218.3,108.7c0-11.7,10.7-17.2,34.3-19.8c0.2-8.5-2-17.9-12.9-17.9c-7.4,0-13.8,3.7-17,6.3l-1.8-2.6
	c3.3-2.4,10.5-6.8,19-6.8c12.2,0,15.9,9.2,15.9,19.7v33.8H253l-0.4-7h-0.2c-5.5,4.4-12,8.3-19,8.3
	C225.3,122.8,218.3,118.7,218.3,108.7z M252.6,110.8v-19c-22.9,2.6-30.8,7.9-30.8,16.8c0,8.1,5.5,11.1,11.8,11.1
	S245.6,116.7,252.6,110.8z"/>
<path class="st0" d="M331.8,125l0.2-10.7c-4.8,4.6-10.7,8.5-17.9,8.5c-13.1,0-21.6-9.6-21.6-27.3c0-16.8,10.7-27.5,23.4-27.5
	c6.3,0,10.7,2.4,15.7,6.1h0.2l0.4-4.8h2.8v76.4h-3.3L331.8,125z M331.8,110.6V78.3c-5.9-5.2-10.7-7.2-16.2-7.2
	C304.5,71.1,296,82,296,95.5c0,14.4,6.5,24.2,18.3,24.2C320.5,119.8,325.9,116.5,331.8,110.6L331.8,110.6z"/>
<path class="st0" d="M355.2,103V69.3h3.3v33.2c0,11.6,3.7,17.3,12.7,17.3c6.6,0,11.4-3.5,17.9-11.4V69.3h3.3v52.2h-2.8l-0.4-9h-0.2
	c-5.2,6.1-10.7,10.3-17.9,10.3C360.2,122.8,355.2,116.5,355.2,103z"/>
<path class="st0" d="M411.3,52.3c-0.1-2.1,1.5-3.8,3.5-3.9c2.1-0.1,3.8,1.5,3.9,3.5c0,0.1,0,0.3,0,0.4c-0.1,2.1-1.9,3.6-3.9,3.5
	C412.9,55.7,411.4,54.2,411.3,52.3z M413.3,69.3h3.3v52.2h-3.3V69.3z"/>
<path class="st0" d="M437.5,69.3h2.8l0.4,8.3h0.2c5.5-5.5,10.9-9.6,18.1-9.6c10.7,0,15.7,6.3,15.7,19.9v33.6h-3.3V88.3
	c0-11.6-3.7-17.2-12.7-17.2c-6.5,0-11.4,3.5-18.1,10.5v40h-3.3L437.5,69.3z"/>
<path class="st0" d="M496,107.8V72.4h-8.3v-2.6l8.3-0.4l0.5-15.3h2.8v15.3h15.5v3.1h-15.5v35.8c0,6.8,1.5,11.6,9.2,11.6
	c2.3-0.2,4.6-0.8,6.8-1.8l1.1,2.8c-2.6,1-5.3,1.7-8.1,2C498.7,122.8,496,116.7,496,107.8z"/>
<path class="st0" d="M521.6,108.7c0-11.7,10.7-17.2,34.3-19.8c0.2-8.5-2-17.9-12.9-17.9c-7.4,0-13.8,3.7-17,6.3l-1.8-2.6
	c3.3-2.4,10.5-6.8,19-6.8c12.2,0,15.9,9.2,15.9,19.7v33.8h-2.8l-0.4-7h-0.2c-5.5,4.4-12,8.3-19,8.3
	C528.6,122.8,521.6,118.7,521.6,108.7z M555.9,110.8v-19c-22.9,2.6-30.8,7.9-30.8,16.8c0,8.1,5.5,11.1,11.8,11.1
	S548.9,116.7,555.9,110.8z"/>
<path class="st0" d="M106.5,160.2h2.8l0.4,6.8h0.2c5.2-4.1,11.6-8.1,18.1-8.1c14.2,0,21,10.5,21,26.6c0,17.7-10.7,28.2-23.2,28.2
	c-5,0-10.5-2.4-16.2-6.6v29.5h-3.3L106.5,160.2z M145.6,185.5c0-13.3-4.8-23.6-17.7-23.6c-5.5,0-11.3,3.3-18.1,9.2v32.3
	c6.3,5.2,12.2,7.2,16.4,7.2C137.5,210.6,145.6,200.2,145.6,185.5z"/>
<path class="st0" d="M159.8,199.6c0-11.7,10.7-17.1,34.3-19.8c0.2-8.5-2-17.9-12.9-17.9c-7.4,0-13.8,3.7-17,6.3l-1.7-2.6
	c3.3-2.4,10.5-6.8,19-6.8c12.2,0,15.9,9.2,15.9,19.7v33.9h-2.8l-0.4-7h-0.2c-5.5,4.4-12,8.3-19,8.3
	C166.8,213.7,159.8,209.6,159.8,199.6z M194.1,201.7v-19c-22.9,2.6-30.8,7.9-30.8,16.8c0,8.1,5.5,11.1,11.8,11.1
	S187.1,207.6,194.1,201.7z"/>
<path class="st0" d="M216.8,160.2h2.8l0.4,9.8h0.2c3.5-6.3,8.5-11.1,14.9-11.1c1.7-0.1,3.5,0.3,5,1.1l-0.9,3.1
	c-1.4-0.6-3-0.9-4.6-0.9c-4.8,0-10.5,3.7-14.6,14v36.2h-3.3L216.8,160.2z"/>
<path class="st0" d="M251.3,198.6v-35.4H243v-2.6l8.3-0.4l0.4-15.3h2.8v15.3h15.5v3.1h-15.5v35.8c0,6.8,1.5,11.6,9.2,11.6
	c2.3-0.2,4.6-0.8,6.8-1.8l1.1,2.8c-2.6,1-5.3,1.7-8.1,2C253.9,213.7,251.3,207.6,251.3,198.6z"/>
<path class="st0" d="M277.5,186.4c0-17,10.9-27.5,22.5-27.5c12,0,19.7,8.5,19.7,24c0,1.2,0,2.3-0.2,3.5H281c0,14,8.1,24.2,20.5,24.2
	c5.2,0,10.3-1.7,14.4-4.8l1.5,2.8c-3.9,2.4-8.3,5-16.2,5C288.2,213.7,277.5,203.4,277.5,186.4z M316.4,183.3
	c0-14.4-6.5-21.4-16.4-21.4c-9.4,0-17.9,8.1-19,21.4H316.4z"/>
<path class="st0" d="M346.6,200.1c0-8,5.1-13,11-13c3,0,5.1,1.1,7.6,3.1l-0.1-4.6v-10.5h1.5v37.3h-1.3l-0.2-3.3h-0.1
	c-2.1,2.1-4.9,3.9-8.3,3.9C350.6,213,346.6,208.5,346.6,200.1z M365.2,207.2v-15.3c-2.8-2.5-5.1-3.4-7.6-3.4
	c-5.3,0-9.3,5.2-9.3,11.6c0,6.8,3.1,11.5,8.7,11.5C359.8,211.6,362.4,210,365.2,207.2z"/>
<path class="st0" d="M374.5,200.1c0-8.1,5.2-13,10.6-13c5.7,0,9.3,4,9.3,11.4c0,0.6,0,1.1-0.1,1.6h-18.2c0,6.6,3.8,11.5,9.7,11.5
	c2.5,0,4.9-0.8,6.8-2.3l0.7,1.3c-2.2,1.6-4.9,2.4-7.6,2.4C379.5,213,374.5,208.1,374.5,200.1z M392.8,198.6c0-6.8-3.1-10.1-7.8-10.1
	c-4.4,0-8.5,3.8-9,10.1H392.8z"/>
<path class="st0" d="M411.6,209.7v-34.6h1.5V210c0,1,0.4,1.6,1,1.6c0.3,0,0.6,0,0.9-0.1l0.3,1.3c-0.4,0.1-0.9,0.2-1.3,0.2
	C412.6,213,411.6,212.1,411.6,209.7z"/>
<path class="st0" d="M421.4,200.1c0-8.3,5.1-13,11-13s11,4.8,11,13s-5.1,12.9-11,12.9S421.4,208.3,421.4,200.1z M441.6,200.1
	c0-6.8-4-11.6-9.3-11.6s-9.3,4.8-9.3,11.6s4,11.5,9.3,11.5S441.6,206.9,441.6,200.1z"/>
<path class="st0" d="M447.8,209.6l1-1.2c2.2,2.1,5.1,3.2,8.1,3.2c4.1,0,6.3-2.5,6.3-5.3c0-3.3-3.3-4.8-6.2-5.8
	c-3.8-1.3-8.1-2.8-8.1-7c0-3.4,2.7-6.4,7.8-6.4c2.5,0,4.9,0.9,6.8,2.5l-0.9,1.2c-1.7-1.4-3.8-2.2-6-2.3c-4.1,0-6,2.4-6,4.9
	c0,3,3,4.1,6,5.3c3.9,1.5,8.3,2.7,8.3,7.5c0,3.6-2.9,6.8-8.1,6.8C453.5,213,450.3,211.8,447.8,209.6z"/>
<path class="st0" d="M160.1,313.6l1-1.2c2.2,2.1,5.1,3.2,8.1,3.2c4.1,0,6.3-2.5,6.3-5.3c0-3.3-3.3-4.8-6.2-5.8
	c-3.8-1.3-8.1-2.8-8.1-7c0-3.4,2.7-6.4,7.8-6.4c2.5,0.1,4.9,0.9,6.8,2.5l-0.9,1.2c-1.7-1.4-3.8-2.2-6-2.3c-4.1,0-6,2.4-6,4.9
	c0,3,3,4.1,6,5.3c3.9,1.5,8.3,2.7,8.3,7.5c0,3.6-2.9,6.8-8.1,6.8C165.7,317,162.5,315.8,160.1,313.6z"/>
<path class="st0" d="M181.8,304.1c0-8.3,5.1-13,11-13s10.9,4.8,10.9,13s-5.1,12.9-11,12.9S181.8,312.3,181.8,304.1z M202,304.1
	c0-6.8-4-11.6-9.3-11.6s-9.3,4.8-9.3,11.6s4,11.5,9.3,11.5S202,310.9,202,304.1z"/>
<path class="st0" d="M211.4,291.7h1.3l0.2,3.9h0.1c2.6-2.6,5.2-4.5,8.6-4.5c5.1,0,7.4,3,7.4,9.4v15.9h-1.6v-15.7
	c0-5.5-1.8-8.2-6-8.2c-3.1,0-5.4,1.6-8.6,5v18.9h-1.5L211.4,291.7z"/>
<path class="st0" d="M67.4,397.8c0-8,5.1-13,11.1-13c3,0,5.1,1.1,7.6,3.1l-0.1-4.6v-10.5h1.6v37.3h-1.3l-0.2-3.3h-0.1
	c-2.1,2.4-5.1,3.8-8.3,3.9C71.5,410.7,67.4,406.1,67.4,397.8z M86,404.9v-15.3c-2.8-2.5-5.1-3.4-7.7-3.4c-5.3,0-9.3,5.2-9.3,11.6
	c0,6.8,3.1,11.5,8.7,11.5C80.7,409.2,83.3,407.7,86,404.9z"/>
<path class="st0" d="M95.3,397.8c0-8.1,5.2-13,10.6-13c5.7,0,9.3,4,9.3,11.4c0,0.6,0,1.1-0.1,1.6H97c0,6.6,3.8,11.5,9.7,11.5
	c2.5,0,4.9-0.8,6.8-2.3l0.7,1.4c-2.2,1.6-4.9,2.4-7.7,2.4C100.4,410.7,95.3,405.8,95.3,397.8z M113.7,396.3c0-6.8-3.1-10.1-7.8-10.1
	c-4.4,0-8.5,3.8-9,10.1H113.7z"/>
<path class="st0" d="M133.8,411.9c0-17.9,12.6-28.2,26.9-28.2c5.8,0,11.4,2.1,15.7,6l-6.1,8.2c-2.8-2.5-5.6-3.9-8.9-3.9
	c-8.6,0-14.6,7.2-14.6,17.9s5.9,17.8,14.2,17.8c4.2,0,8-2.1,11.1-4.6l5.1,8.3c-4.8,4.3-11.1,6.6-17.5,6.6
	C145,440,133.8,429.7,133.8,411.9z"/>
<path class="st0" d="M186.4,368.5c0-4.2,3.3-7.1,7.8-7.1s7.8,2.9,7.8,7.1s-3.3,7.1-7.8,7.1S186.4,372.7,186.4,368.5z M187.8,385.1
	h12.6v53.6h-12.6V385.1z"/>
<path class="st0" d="M212.9,411.9c0-17.4,12.1-28.2,24.7-28.2c14.5,0,22.1,10.5,22.1,25.5c0,2-0.2,4.1-0.5,6.1h-34
	c1.1,9.5,7.2,14.9,15.8,14.9c4.4-0.1,8.8-1.4,12.4-3.9l4.3,7.8c-5.4,3.7-11.8,5.7-18.4,5.8C224.5,440,212.9,429.6,212.9,411.9z
	 M248.9,406.8c0-8.2-3.7-13.3-11-13.3c-6.2,0-11.8,4.7-12.8,13.3H248.9z"/>
<path class="st0" d="M271.8,385h10.3l1,7.2h0.4c4.8-4.7,10.3-8.6,17.6-8.6c11.5,0,16.5,7.8,16.5,21.3v33.6h-12.6v-32
	c0-8.8-2.5-12.1-8.3-12.1c-4.7,0-7.8,2.3-12.2,6.7v37.5h-12.6V385z"/>
<path class="st0" d="M329.4,411.9c0-17.9,12.6-28.2,26.9-28.2c5.8,0,11.4,2.1,15.7,6l-6.1,8.2c-2.8-2.5-5.5-3.9-8.9-3.9
	c-8.6,0-14.6,7.2-14.6,17.9s5.9,17.8,14.2,17.8c4.2,0,8-2.1,11.1-4.6l5.1,8.3c-4.8,4.3-11.1,6.6-17.5,6.6
	C340.6,440,329.4,429.7,329.4,411.9z"/>
<path class="st0" d="M381.9,368.5c0-4.2,3.3-7.1,7.8-7.1s7.8,2.9,7.8,7.1s-3.3,7.1-7.8,7.1S381.9,372.7,381.9,368.5z M383.4,385.1
	h12.6v53.6h-12.6V385.1z"/>
<path class="st0" d="M409.1,424.3c0-11.5,9.5-17.5,31.5-19.8c-0.2-5.8-2.5-10.6-9.7-10.6c-5.3,0-10.4,2.4-15.1,5.3l-4.6-8.4
	c5.9-3.7,13.5-7,22-7c13.4,0,20,8.2,20,23.2v31.8h-10.3l-1-5.9h-0.4c-4.8,4.1-10.3,7.2-16.6,7.2C415.5,440,409.1,433.6,409.1,424.3z
	 M440.6,424.3v-12c-14.5,1.8-19.4,5.6-19.4,11c0,4.7,3.2,6.8,7.7,6.8S436.6,428,440.6,424.3L440.6,424.3z"/>
<path class="st0" d="M258.7,292.6H269l1,7.3h0.4c4.5-4.7,9.7-8.6,16.5-8.6c7.9,0,12.3,3.6,14.8,9.6c5.1-5.5,10.4-9.6,17.2-9.6
	c11.3,0,16.6,7.8,16.6,21.3v33.6h-12.6v-32c0-8.8-2.6-12.1-8.3-12.1c-3.4,0-7.1,2.2-11.2,6.7v37.5h-12.6v-32
	c0-8.8-2.6-12.1-8.2-12.1c-3.3,0-7.1,2.2-11.2,6.7v37.5h-12.6V292.6z"/>
<path class="st0" d="M350.1,326.2v-33.6h12.6v32c0,8.8,2.5,12.1,8.4,12.1c4.7,0,7.8-2.2,11.9-7.4v-36.7h12.6v53.6h-10.3l-1-7.9h-0.4
	c-4.7,5.6-9.9,9.2-17.2,9.2C355.1,347.5,350.1,339.8,350.1,326.2z"/>
<path class="st0" d="M406.1,340.1l5.9-8c4.8,3.7,9.4,6,14.8,6c5.9,0,8.6-2.8,8.6-6.4c0-4.5-5.8-6.5-11.5-8.7
	c-7-2.6-15.1-6.7-15.1-15.6c0-9.3,7.5-16,19.5-16c6.5,0.1,12.8,2.3,17.8,6.4l-5.8,7.7c-3.8-2.8-7.5-4.7-11.8-4.7c-5.4,0-8,2.6-8,5.9
	c0,4.2,5.4,5.9,11.2,8c7.2,2.7,15.4,6.2,15.4,16.2c0,9.2-7.3,16.6-20.8,16.6C419,347.4,411.8,344.8,406.1,340.1z"/>
<path class="st0" d="M455,319.5c0-17.4,12.1-28.2,24.7-28.2c14.5,0,22.1,10.5,22.1,25.5c0,2-0.2,4.1-0.5,6.1h-34
	c1,9.5,7.2,14.9,15.8,14.9c4.4-0.1,8.8-1.4,12.5-3.9l4.3,7.8c-5.4,3.7-11.8,5.7-18.4,5.8C466.6,347.5,455,337.2,455,319.5z
	 M491,314.3c0-8.2-3.7-13.3-11-13.3c-6.2,0-11.8,4.7-12.8,13.3H491z"/>
<path class="st0" d="M510.3,319.5c0-17.9,12.1-28.2,25.5-28.2s25.5,10.3,25.5,28.2s-12.1,28.1-25.5,28.1S510.3,337.2,510.3,319.5z
	 M548.4,319.5c0-10.8-4.7-17.9-12.6-17.9s-12.6,7.2-12.6,17.9s4.7,17.8,12.6,17.8S548.4,330.2,548.4,319.5z"/>
<path class="st0" d="M568,340.1l5.9-8c4.8,3.7,9.4,6,14.8,6c5.9,0,8.6-2.8,8.6-6.4c0-4.5-5.8-6.5-11.5-8.7
	c-7-2.6-15.1-6.7-15.1-15.6c0-9.3,7.5-16,19.5-16c6.5,0.1,12.8,2.3,17.8,6.4l-5.8,7.7c-3.8-2.8-7.5-4.7-11.8-4.7c-5.4,0-8,2.6-8,5.9
	c0,4.2,5.4,5.9,11.2,8c7.2,2.7,15.4,6.2,15.4,16.2c0,9.2-7.3,16.6-20.8,16.6C580.9,347.4,573.8,344.7,568,340.1z"/>
<path class="st0" d="M153.5,250.4c0-6.4,4-10.3,9-10.3c2.2,0,4.2,0.9,5.7,2.5l-1.9,2.2c-1-1.1-2.3-1.7-3.7-1.7
	c-3.2,0-5.5,2.7-5.5,7.1s2.1,7.2,5.4,7.2c1.6,0,3.2-0.7,4.2-2l1.9,2.2c-1.5,1.9-3.8,2.9-6.2,2.9C157.4,260.6,153.5,257,153.5,250.4z
	"/>
<path class="st0" d="M179.1,240.5h11.8v2.9h-8.4v5.1h7.1v2.9h-7.1v5.8h8.6v2.9h-12.1V240.5z"/>
<path class="st0" d="M202.5,240.5h3.6l6.1,11.1l2,4.2h0.1c-0.2-2-0.4-4.5-0.4-6.7v-8.5h3.3v19.7h-3.6l-6.1-11.1l-2-4.2h-0.1
	c0.2,2.1,0.4,4.5,0.4,6.6v8.6h-3.3L202.5,240.5z"/>
<path class="st0" d="M233.4,243.5h-5.7v-2.9h14.9v2.9h-5.7v16.8h-3.5V243.5z"/>
<path class="st0" d="M253.1,240.5h6.6c4.1,0,7.2,1.4,7.2,5.8c0,4.2-3.2,6.1-7.2,6.1h-3.1v7.7h-3.5L253.1,240.5z M259.3,249.7
	c2.7,0,4.2-1.1,4.2-3.4s-1.5-3-4.2-3h-2.8v6.4L259.3,249.7z M259,251.6l2.5-2.1l6.1,10.7h-3.9L259,251.6z"/>
<path class="st0" d="M277.1,250.3c0-6.4,3.5-10.1,8.7-10.1s8.7,3.8,8.7,10.1s-3.5,10.3-8.7,10.3S277.1,256.7,277.1,250.3z
	 M290.8,250.3c0-4.4-2-7.1-5.1-7.1s-5.1,2.7-5.1,7.1s2,7.2,5.1,7.2S290.8,254.7,290.8,250.3z"/>
<path class="st0" d="M304.2,257.7l2-2.4c1.4,1.4,3.2,2.2,5.1,2.2c2.2,0,3.4-1,3.4-2.5s-1.3-2.1-3.1-2.9l-2.7-1.2
	c-1.9-0.8-4-2.3-4-5.2c0-3.1,2.8-5.5,6.6-5.5c2.3,0,4.5,0.9,6.1,2.5l-1.7,2.2c-1.2-1.1-2.7-1.7-4.3-1.7c-1.9,0-3.1,0.9-3.1,2.3
	s1.5,2.1,3.1,2.8l2.6,1.1c2.3,1,4,2.5,4,5.3c0,3.2-2.6,5.9-7.1,5.9C308.7,260.6,306.1,259.6,304.2,257.7z"/>
<path class="st0" d="M342.4,240.5h5.2c6,0,9.6,3.2,9.6,9.8c0,6.5-3.6,9.9-9.4,9.9h-5.4V240.5z M347.4,257.4c4,0,6.2-2.2,6.2-7.1
	s-2.3-6.9-6.2-6.9h-1.5v14L347.4,257.4z"/>
<path class="st0" d="M368.5,240.5h11.8v2.9H372v5.1h7v2.9h-7v5.8h8.6v2.9h-12.2V240.5z"/>
<path class="st0" d="M404.1,250.4c0-6.4,4-10.3,9-10.3c2.2,0,4.2,0.9,5.7,2.5l-1.9,2.2c-1-1.1-2.3-1.7-3.7-1.7
	c-3.2,0-5.5,2.7-5.5,7.1s2.1,7.2,5.4,7.2c1.6,0,3.2-0.7,4.2-2l1.9,2.2c-1.5,1.9-3.8,2.9-6.2,2.9C408,260.6,404.1,257,404.1,250.4z"
	/>
<path class="st0" d="M429.6,240.5h3.5v19.7h-3.5V240.5z"/>
<path class="st0" d="M445.4,240.5h11.8v2.9h-8.4v5.1h7.1v2.9h-7.1v5.8h8.6v2.9h-12.1V240.5z"/>
<path class="st0" d="M468.8,240.5h3.6l6.1,11.1l2,4.2h0.1c-0.2-2-0.5-4.5-0.5-6.7v-8.5h3.3v19.7h-3.6l-6.1-11.1l-2-4.2h-0.1
	c0.2,2.1,0.4,4.5,0.4,6.6v8.6h-3.3L468.8,240.5z"/>
<path class="st0" d="M494.7,250.4c0-6.4,4-10.3,9-10.3c2.2,0,4.2,0.9,5.7,2.5l-1.9,2.2c-1-1.1-2.3-1.7-3.7-1.7
	c-3.2,0-5.5,2.7-5.5,7.1s2.1,7.2,5.4,7.2c1.6,0,3.2-0.7,4.2-2l1.9,2.2c-1.5,1.9-3.8,2.9-6.2,2.9C498.6,260.6,494.7,257,494.7,250.4z
	"/>
<path class="st0" d="M520.3,240.5h3.5v19.7h-3.5V240.5z"/>
<path class="st0" d="M539.8,240.5h4.1l6.4,19.7h-3.7l-3-10.5c-0.6-2.1-1.2-4.3-1.8-6.5h-0.1c-0.5,2.2-1.1,4.4-1.8,6.5l-3,10.5h-3.6
	L539.8,240.5z M537.2,252.1h9.3v2.7h-9.3V252.1z"/>
</svg>
